<?xml version="1.0" encoding="UTF-8" standalone="no"?>
<!DOCTYPE svg PUBLIC "-//W3C//DTD SVG 1.1//EN" "http://www.w3.org/Graphics/SVG/1.1/DTD/svg11.dtd">
<svg width="100%" height="100%" viewBox="0 0 70 73" version="1.1" xmlns="http://www.w3.org/2000/svg" xmlns:xlink="http://www.w3.org/1999/xlink" xml:space="preserve" xmlns:serif="http://www.serif.com/" style="fill-rule:evenodd;clip-rule:evenodd;stroke-linejoin:round;stroke-miterlimit:2;">
    <g transform="matrix(1,0,0,1,-1320.21,-3903.54)">
        <g transform="matrix(1,0,0,1,0,32)">
            <g transform="matrix(0.682056,0,0,0.682056,1127.28,1422.8)">
                <circle cx="334.176" cy="3645.16" r="51.315" style="fill:rgb(247,247,247);"/>
            </g>
        </g>
        <g transform="matrix(1,0,0,1,0,32)">
            <g id="分離模式" transform="matrix(3.26757,0,0,3.26757,1327.57,3603.84)">
                <g transform="matrix(0.295837,0,0,0.295837,-392.744,-1072.88)">
                    <path d="M1327.57,3903.54L1327.57,3966.92L1378.54,3966.92L1378.54,3955.23L1376.01,3955.23L1376.01,3964.38L1330.11,3964.38L1330.11,3906.07L1376.01,3906.07L1376.01,3919.59L1378.54,3919.59L1378.54,3903.54L1327.57,3903.54ZM1368.98,3950.86L1352.85,3950.86L1352.85,3953.39L1368.98,3953.39L1368.98,3950.86ZM1348.62,3953.39L1339.33,3953.39L1339.33,3944.1L1348.62,3944.1L1348.62,3953.39ZM1341.86,3950.86L1346.09,3950.86L1346.09,3946.63L1341.86,3946.63L1341.86,3950.86ZM1362.75,3944.1L1352.85,3944.1L1352.85,3946.63L1362.75,3946.63L1362.75,3944.1ZM1362.75,3937.34L1352.85,3937.34L1352.85,3939.87L1362.75,3939.87L1362.75,3937.34ZM1348.62,3939.87L1339.33,3939.87L1339.33,3930.58L1348.62,3930.58L1348.62,3939.87ZM1341.86,3937.34L1346.09,3937.34L1346.09,3933.11L1341.86,3933.11L1341.86,3937.34ZM1362.75,3930.58L1352.85,3930.58L1352.85,3933.11L1362.75,3933.11L1362.75,3930.58ZM1362.75,3923.81L1352.85,3923.81L1352.85,3926.35L1362.75,3926.35L1362.75,3923.81ZM1348.62,3926.35L1339.33,3926.35L1339.33,3917.06L1348.62,3917.06L1348.62,3926.35ZM1341.86,3923.82L1346.09,3923.82L1346.09,3919.59L1341.86,3919.59L1341.86,3923.82ZM1362.75,3917.06L1352.85,3917.06L1352.85,3919.59L1362.75,3919.59L1362.75,3917.06Z" style="fill-rule:nonzero;"/>
                </g>
                <g transform="matrix(0.295837,0,0,0.295837,-392.744,-1072.88)">
                    <path d="M1377.28,3951.27L1370.86,3946.89C1368.43,3945.22 1366.98,3942.42 1366.98,3939.4L1366.98,3925.76L1368.25,3925.76C1368.46,3925.76 1368.74,3925.78 1369.07,3925.79C1370.82,3925.87 1374.44,3926.03 1376.29,3924.19L1376.66,3923.82L1377.71,3923.82L1378.26,3924.19C1380.1,3926.03 1383.74,3925.88 1385.48,3925.79C1385.81,3925.78 1386.09,3925.76 1386.3,3925.76L1387.57,3925.76L1387.57,3939.4C1387.57,3942.42 1386.12,3945.22 1383.68,3946.89L1377.28,3951.27ZM1369.51,3928.35L1369.51,3939.4C1369.51,3941.59 1370.56,3943.6 1372.3,3944.79L1377.28,3948.2L1382.25,3944.79C1383.99,3943.6 1385.04,3941.58 1385.04,3939.4L1385.04,3928.35C1383.02,3928.43 1379.69,3928.41 1377.28,3926.67C1374.86,3928.41 1371.51,3928.42 1369.51,3928.35ZM1376.61,3940.95L1372.47,3937.59L1374.07,3935.62L1376.43,3937.54L1380.37,3933.6L1382.17,3935.39L1376.61,3940.95Z" style="fill:rgb(215,0,15);fill-rule:nonzero;"/>
                </g>
            </g>
        </g>
    </g>
</svg>
