<?xml version="1.0" encoding="UTF-8" standalone="no"?>
<!DOCTYPE svg PUBLIC "-//W3C//DTD SVG 1.1//EN" "http://www.w3.org/Graphics/SVG/1.1/DTD/svg11.dtd">
<svg width="100%" height="100%" viewBox="0 0 95 70" version="1.1" xmlns="http://www.w3.org/2000/svg" xmlns:xlink="http://www.w3.org/1999/xlink" xml:space="preserve" xmlns:serif="http://www.serif.com/" style="fill-rule:evenodd;clip-rule:evenodd;stroke-linejoin:round;stroke-miterlimit:2;">
    <g transform="matrix(1,0,0,1,-796.121,-3906)">
        <g transform="matrix(1,0,0,1,0,32)">
            <g transform="matrix(0.682056,0,0,0.682056,621.344,1422.8)">
                <circle cx="334.176" cy="3645.16" r="51.315" style="fill:rgb(247,247,247);"/>
            </g>
        </g>
        <g transform="matrix(1,0,0,1,0,32)">
            <g id="圖層-1" serif:id="圖層 1" transform="matrix(1,0,0,1,796.12,3874.76)">
                <g transform="matrix(1,0,0,1,2.4854,29.2058)">
                    <path d="M0,21.939L0,20.052C2.499,21.489 6.547,22.227 10.564,22.227C12.18,22.227 13.778,22.108 15.262,21.882L15.262,24.725C13.926,24.95 12.437,25.058 10.564,25.058C4.011,25.058 0,23.038 0,21.939M0,14.599C2.499,16.036 6.547,16.775 10.564,16.775C12.18,16.775 13.776,16.656 15.262,16.429L15.262,19.358C13.798,19.605 12.198,19.742 10.564,19.742C4.011,19.742 0,17.722 0,16.623L0,14.599ZM10.564,8.052C12.197,8.052 13.797,8.189 15.262,8.437L15.262,13.906C13.797,14.154 12.198,14.29 10.564,14.29C4.011,14.29 0,12.27 0,11.171C0,10.071 4.011,8.052 10.564,8.052M28.312,-6.133C35.148,-6.133 38.877,-3.978 38.877,-2.87C38.877,-1.763 35.148,0.392 28.312,0.392C21.477,0.392 17.747,-1.763 17.747,-2.87C17.747,-3.978 21.477,-6.133 28.312,-6.133M28.312,2.878C34.797,2.878 41.363,0.903 41.363,-2.87C41.363,-6.644 34.797,-8.618 28.312,-8.618C21.826,-8.618 15.262,-6.644 15.262,-2.87L15.262,5.912C13.777,5.685 12.179,5.567 10.564,5.567C4.089,5.567 -2.466,7.486 -2.485,11.154L-2.485,21.939C-2.485,25.619 4.079,27.543 10.564,27.543C12.821,27.543 14.591,27.4 16.206,27.085C18.24,29.369 23.292,30.557 28.312,30.557C30.211,30.557 32.035,30.395 33.737,30.077C34.41,29.951 34.855,29.301 34.728,28.626C34.603,27.953 33.962,27.509 33.278,27.634C31.728,27.924 30.057,28.071 28.312,28.071C21.477,28.071 17.747,25.916 17.747,24.809L17.747,22.834C20.246,24.308 24.294,25.066 28.312,25.066C29.609,25.066 30.888,24.989 32.114,24.836C32.795,24.752 33.279,24.131 33.194,23.451C33.109,22.77 32.494,22.283 31.808,22.371C30.684,22.509 29.507,22.58 28.312,22.58C21.477,22.58 17.747,20.425 17.747,19.318L17.747,17.343C20.246,18.817 24.294,19.574 28.312,19.574C29.896,19.574 31.438,19.461 32.897,19.238C33.575,19.134 34.041,18.5 33.937,17.821C33.834,17.144 33.21,16.674 32.521,16.781C31.187,16.985 29.771,17.089 28.312,17.089C21.477,17.089 17.747,14.934 17.747,13.827L17.747,11.769C20.246,13.243 24.294,14 28.312,14C30.724,14 33.068,13.733 35.091,13.226C35.756,13.059 36.161,12.384 35.994,11.718C35.828,11.051 35.153,10.655 34.487,10.815C32.659,11.273 30.523,11.515 28.312,11.515C21.477,11.515 17.747,9.36 17.747,8.252L17.747,6.278C20.246,7.752 24.294,8.509 28.312,8.509C31.548,8.509 34.626,8.029 36.977,7.156C37.62,6.918 37.949,6.202 37.71,5.559C37.472,4.916 36.757,4.586 36.113,4.826C34.03,5.599 31.261,6.024 28.312,6.024C21.477,6.024 17.747,3.869 17.747,2.761L17.747,0.646C20.246,2.12 24.294,2.878 28.312,2.878" style="fill:rgb(218,41,45);fill-rule:nonzero;"/>
                </g>
                <g transform="matrix(1,0,0,1,-796.12,-3906.76)">
                    <path d="M890.365,3949.64C889.993,3949.28 889.528,3949.06 889.03,3948.98L889.801,3942.55C889.914,3941.66 889.64,3940.77 889.049,3940.1C888.458,3939.43 887.608,3939.04 886.715,3939.04L877.387,3939.04C875.241,3935.58 872.22,3933.83 868.401,3933.83L867.373,3933.83C866.941,3933.83 866.539,3934.06 866.313,3934.43L859.987,3944.76L859.987,3936.32L860.183,3936.32C860.869,3936.32 861.425,3935.76 861.425,3935.07C861.425,3934.39 860.869,3933.83 860.183,3933.83L857.306,3933.83C856.619,3933.83 856.063,3934.39 856.063,3935.07C856.063,3935.76 856.619,3936.32 857.306,3936.32L857.502,3936.32L857.502,3944.76L851.175,3934.43C850.95,3934.06 850.548,3933.83 850.116,3933.83L849.089,3933.83C844.064,3933.83 840.431,3936.88 838.282,3942.94L833.832,3956.72C833.042,3959.22 833.251,3961.56 834.405,3963.13C835.055,3964.02 836.312,3965.08 838.611,3965.08L887.802,3965.08C888.489,3965.08 889.045,3964.52 889.045,3963.84C889.045,3963.15 888.489,3962.59 887.802,3962.59L887.32,3962.59C887.336,3962.51 887.361,3962.44 887.372,3962.36L887.942,3957.9L888.573,3957.81C889.705,3957.65 890.578,3956.75 890.695,3955.61L891.106,3951.67C891.186,3950.91 890.917,3950.17 890.365,3949.64ZM870.852,3962.59C870.607,3962.59 870.453,3962.46 870.384,3962.38C870.313,3962.3 870.201,3962.13 870.232,3961.88L872.662,3942.08C872.702,3941.76 872.968,3941.53 873.282,3941.53L886.715,3941.53C886.96,3941.53 887.114,3941.66 887.183,3941.74C887.254,3941.82 887.367,3941.99 887.334,3942.24L886.498,3949.21L884.076,3949.55C882.946,3949.71 882.072,3950.61 881.953,3951.74L881.54,3955.69C881.461,3956.45 881.733,3957.19 882.284,3957.72C882.75,3958.18 883.361,3958.42 883.998,3958.42C884.113,3958.42 884.228,3958.41 884.344,3958.4L885.39,3958.25L884.906,3962.05C884.866,3962.36 884.6,3962.59 884.286,3962.59L870.852,3962.59ZM857.306,3962.59L838.611,3962.59C837.602,3962.59 836.861,3962.28 836.41,3961.66C835.738,3960.75 835.661,3959.18 836.198,3957.48L840.635,3943.74C842.433,3938.67 845.12,3936.32 849.089,3936.32L849.419,3936.32L856.384,3947.69C856.852,3948.56 857.756,3949.1 858.744,3949.1C859.732,3949.1 860.636,3948.56 861.07,3947.75L868.07,3936.32L868.401,3936.32C870.858,3936.32 872.783,3937.19 874.336,3939.04L873.282,3939.04C871.72,3939.04 870.394,3940.21 870.196,3941.77L867.766,3961.57C867.722,3961.92 867.754,3962.26 867.823,3962.59L859.967,3962.59C859.972,3962.53 859.987,3962.46 859.987,3962.4L859.987,3958.11C859.987,3956.08 858.341,3954.41 856.318,3954.38C853.48,3954.34 849.596,3954.31 846.081,3954.37L847.759,3950.43C848.028,3949.79 847.734,3949.06 847.102,3948.8C846.471,3948.53 845.74,3948.82 845.472,3949.45L843.041,3955.17C842.874,3955.56 842.918,3956.01 843.157,3956.36C843.395,3956.71 843.8,3956.92 844.219,3956.9C848.121,3956.79 852.934,3956.82 856.284,3956.87C856.966,3956.87 857.502,3957.42 857.502,3958.11L857.502,3962.4C857.502,3962.51 857.414,3962.59 857.306,3962.59ZM888.232,3955.35L884.012,3955.94L884.417,3952.01L888.633,3951.43L888.232,3955.35ZM858.825,3929.89C864.805,3929.89 868.671,3925.35 868.671,3918.33C868.671,3911.3 864.805,3906.76 858.825,3906.76C852.844,3906.76 848.979,3911.3 848.979,3918.33C848.979,3925.35 852.844,3929.89 858.825,3929.89ZM858.825,3909.24C864.252,3909.24 866.185,3913.93 866.185,3918.33C866.185,3922.72 864.252,3927.41 858.825,3927.41C853.398,3927.41 851.464,3922.72 851.464,3918.33C851.464,3913.93 853.398,3909.24 858.825,3909.24Z" style="fill:rgb(33,33,30);fill-rule:nonzero;"/>
                </g>
            </g>
        </g>
    </g>
</svg>
